<robot name="DSH1">
  
  
  
  
  
  <gazebo>
    <plugin filename="libgazebo_ros_control.so" name="gazebo_ros_control">
      <robotNamespace>DSH1</robotNamespace>
      <robotDescription>DSH1_description</robotDescription>
      <robotBaseLink>base</robotBaseLink>
      <statePublisherRate>400.0</statePublisherRate>
    </plugin>
  </gazebo>
  
  <link name="base_link">
    <inertial>
      <origin rpy="0 0 0" xyz="0 0 1.0" />
      <mass value="0" />
      <inertia ixx="0" ixy="0" ixz="0" iyy="0" iyz="0" izz="0" />
    </inertial>
    <visual>
      <origin rpy="0 0 1" xyz="0 0 0" />
      <geometry>
        
        <box size="0.3 0.2 0.12" />

        
      </geometry>
    </visual>
    <collision>
      <origin rpy="0 0 1" xyz="0 0 0.06" />
      <geometry>
        <box size="0.3 0.2 0.12" />
        
      </geometry>
    </collision>
  </link>
  <gazebo reference="base_link">
    <mu1>1.6</mu1>
    <mu2>1.6</mu2>
    <kp>1000000.0</kp>
    <kd>100.0</kd>
    <material>Gazebo/Grey</material>
    <selfCollide>True</selfCollide>
    <gravity>True</gravity>
  </gazebo>
  
  <link name="BR_body_coxa_link">
    <visual>
      <origin rpy="0 0 0" xyz="0 0 0" />
      <geometry>
        <mesh filename="package://assets/meshes/ASM_Body_Coxa_BR.dae" />
      </geometry>
    </visual>
    <collision>
      <origin rpy="0 0 0" xyz="0 -0.075 -0.015" />
      <geometry>
        <box size="0.060 0.150 0.120" />
        
      </geometry>
    </collision>
    <inertial>
      <origin rpy="0 0 0" xyz="-0.06535 -0.06046 -0.02699" />
      <mass value="1.27496" />
      <inertia ixx="0.00734842339" ixy="0.00442716678" ixz="0.00261637227" iyy="0.00938174596" iyz="0.00194391105" izz="0.01360743287" />
    </inertial>
  </link>
  
  <gazebo reference="BR_body_coxa_link">
    <mu1>1.6</mu1>
    <mu2>1.6</mu2>
    <kp>1000000.0</kp>
    <kd>100.0</kd>
    <material>Gazebo/Blue</material>
    <selfCollide>True</selfCollide>
    <gravity>True</gravity>
  </gazebo>
  
  <joint name="BRbody_coxa_joint" type="fixed">
    <origin rpy="0 0 0.0" xyz="0.0 -0.0 0.0" />
    <parent link="base_link" />
    <child link="BR_body_coxa_link" />
  </joint>
  
  <link name="BR_coxa_link">
    <visual>
      <origin rpy="0 0 0" xyz="0 0 0" />
      <geometry>
        <mesh filename="package://assets/meshes/ASM_Coxa.dae" />
      </geometry>
    </visual>
    <collision>
      <origin rpy="0 0 0" xyz="0.032 0 0.062" />
      <geometry>
        <box size="0.096 0.115 0.206" />
        
      </geometry>
    </collision>
    <inertial>
      <origin rpy="0 0 0" xyz="0.006136692344213587 -0.010937310965762765 0.09005674545794257 " />
      <mass value="1.192512080255272" />
      <inertia ixx="0.010363145" ixy="-0.00002634" ixz="0.002634132" iyy="0.011383786" iyz="-0.00006222" izz="0.002010603" />
    </inertial>
  </link>
  
  <gazebo reference="BR_coxa_link">
    <mu1>1.6</mu1>
    <mu2>1.6</mu2>
    <kp>1000000.0</kp>
    <kd>100.0</kd>
    <material>Gazebo/White</material>
    <selfCollide>True</selfCollide>
    <gravity>True</gravity>
  </gazebo>
  
  <joint name="BR_coxa_joint" type="revolute">
    <origin rpy="0.0 0.0 4.7123" xyz="0.02212943468388434 -0.19417471529333657 0.0647703677068878 " />
    <parent link="BR_body_coxa_link" />
    <child link="BR_coxa_link" />
    <axis xyz="0 0 1" />
    <limit effort="75.0" lower="-0.8" upper="0.8" velocity="7.0" />
    <dynamics damping="0.3721606070806277" friction="0.04973131574723723" />
  </joint>
  <transmission name="BR_coxa_tran">
    <type>transmission_interface/SimpleTransmission</type>
    <joint name="BR_coxa_joint">
      <hardwareInterface>hardware_interface/EffortJointInterface</hardwareInterface>
    </joint>
    <actuator name="BR_coxa_motor">
      <hardwareInterface>hardware_interface/EffortJointInterface</hardwareInterface>
      <mechanicalReduction>1</mechanicalReduction>
    </actuator>
  </transmission>
  
  <link name="BR_femur_link">
    <visual>
      <origin rpy="0 0 0" xyz="0 0 0" />
      <geometry>
        <mesh filename="package://assets/meshes/ASM_Femur.dae" />
      </geometry>
    </visual>
    <collision>
      <origin rpy="0 0 0" xyz="0.120 0.034 0.0" />
      <geometry>
        <box size="0.240 0.112 0.115" />
        
      </geometry>
    </collision>
    <inertial>
      <origin rpy="0 0 0" xyz="0.028792928446880826 0.09849038619778167 9.736298430982525e-05 " />
      <mass value="1.4011206914209484" />
      <inertia ixx="0.002340533" ixy="0.002362186" ixz="-0.000013487" iyy="0.014456528" iyz="-0.000010469" izz="0.015646015" />
    </inertial>
  </link>
  
  <gazebo reference="BR_femur_link">
    <mu1>1.6</mu1>
    <mu2>1.6</mu2>
    <kp>1000000.0</kp>
    <kd>100.0</kd>
    <material>Gazebo/Orange</material>
    <selfCollide>True</selfCollide>
    <gravity>True</gravity>
  </gazebo>
  
  <joint name="BR_femur_joint" type="revolute">
    <origin rpy="-1.5708 0 0" xyz="0.1392640687882084 0.05169159346099311 -0.009930232725900991 " />
    <parent link="BR_coxa_link" />
    <child link="BR_femur_link" />
    <axis xyz="0 0 1" />
    <limit effort="75.0" lower="-1.0" upper="0.5" velocity="7.0" />
    <dynamics damping="0.01225385344180999" friction="0.05452449919598295" />
  </joint>
  <transmission name="BR_femur_tran">
    <type>transmission_interface/SimpleTransmission</type>
    <joint name="BR_femur_joint">
      <hardwareInterface>hardware_interface/EffortJointInterface</hardwareInterface>
    </joint>
    <actuator name="BR_femur_motor">
      <hardwareInterface>hardware_interface/EffortJointInterface</hardwareInterface>
      <mechanicalReduction>1</mechanicalReduction>
    </actuator>
  </transmission>
  
  <link name="BR_tibia_link">
    <visual>
      <origin rpy="0 0 0" xyz="0 0 0" />
      <geometry>
        <mesh filename="package://assets/meshes/ASM_Tibia.dae" />
      </geometry>
    </visual>
    <collision name="BR_tibia_link_collision">
      <origin rpy="0 1.5708 0" xyz="0.164 -0.015 0" />
      <geometry>
        <cylinder length="0.244" radius="0.016" />
        
      </geometry>
    </collision>
    <inertial>
      <origin rpy="0 0 0" xyz="0.1658284699480074 -0.07858963745163038 -0.028347613607340894 " />
      <mass value="0.5308293922556123" />
      <inertia ixx="0.001498123" ixy="-0.00026755" ixz="0.000201288" iyy="0.007635803" iyz="0.000141149" izz="0.0074706" />
    </inertial>
  </link>
  
  <gazebo reference="BR_tibia_link">
    <mu1>1.6</mu1>
    <mu2>1.6</mu2>
    <kp>1000000.0</kp>
    <kd>100.0</kd>
    <material>Gazebo/Grey</material>
    
    
  </gazebo>
  
  <joint name="BR_tibia_joint" type="revolute">
    <origin rpy="0 0 0" xyz="0.2686468577550629 -0.07352673749974285 -0.03391049074343573 " />
    <parent link="BR_femur_link" />
    <child link="BR_tibia_link" />
    <axis xyz="0 0 1" />
    <limit effort="75.0" lower="0.5" upper="2.5" velocity="7.0" />
    <dynamics damping="0.17399192462947907" friction="0.025862039920100367" />
  </joint>
  <transmission name="BR_tibia_tran">
    <type>transmission_interface/SimpleTransmission</type>
    <joint name="BR_tibia_joint">
      <hardwareInterface>hardware_interface/EffortJointInterface</hardwareInterface>
    </joint>
    <actuator name="BR_tibia_motor">
      <hardwareInterface>hardware_interface/EffortJointInterface</hardwareInterface>
      <mechanicalReduction>1</mechanicalReduction>
    </actuator>
  </transmission>
  
  <link name="BR_foot_link">
    <visual>
      <geometry>
        
        <sphere radius="0.02" />
      </geometry>
      <origin rpy="0 0 0" xyz="0 0 0" />
    </visual>
    <collision name="BR_foot_link_collision">
      <geometry>
        <sphere radius="0.02" />
      </geometry>
      <origin rpy="0 0 0" xyz="0 0 0" />
    </collision>
    <inertial>
      <origin rpy="0 0 0" xyz="0 0 0" />
      <mass value="0.0258" />
      <inertia ixx="0" ixy="0" ixz="0" iyy="0" iyz="0" izz="0" />
    </inertial>
  </link>
  
  <gazebo reference="BR_foot_link">
    <mu1>1.6</mu1>
    <mu2>1.6</mu2>
    <kp>1000000.0</kp>
    <kd>100.0</kd>
    <material>Gazebo/Gold</material>
    
    
  </gazebo>
  
  <joint name="BR_foot_joint" type="fixed">
    
    
    <origin rpy="0 0 0" xyz="0.32 -0.0164 0" />
    <parent link="BR_tibia_link" />
    <child link="BR_foot_link" />
    <axis xyz="0 0 0" />
  </joint>
</robot>