<robot name="DSH1">
  
  
  
  
  
  <gazebo>
    <plugin filename="libgazebo_ros_control.so" name="gazebo_ros_control">
      <robotNamespace>DSH1</robotNamespace>
      <robotDescription>DSH1_description</robotDescription>
      <robotBaseLink>base</robotBaseLink>
      <statePublisherRate>400.0</statePublisherRate>
    </plugin>
  </gazebo>
  
  <link name="base_link">
    <inertial>
      <origin rpy="0 0 0" xyz="0 0 1.0" />
      <mass value="0" />
      <inertia ixx="0" ixy="0" ixz="0" iyy="0" iyz="0" izz="0" />
    </inertial>
    <visual>
      <origin rpy="0 0 1" xyz="0 0 0" />
      <geometry>
        
        <box size="0.3 0.2 0.12" />

        
      </geometry>
    </visual>
    <collision>
      <origin rpy="0 0 1" xyz="0 0 0.06" />
      <geometry>
        <box size="0.3 0.2 0.12" />
        
      </geometry>
    </collision>
  </link>
  <gazebo reference="base_link">
    <mu1>1.6</mu1>
    <mu2>1.6</mu2>
    <kp>1000000.0</kp>
    <kd>100.0</kd>
    <material>Gazebo/Grey</material>
    <selfCollide>True</selfCollide>
    <gravity>True</gravity>
  </gazebo>
  
  <link name="BR_body_coxa_link">
    <visual>
      <origin rpy="0 0 0" xyz="0 0 0" />
      <geometry>
        <mesh filename="package://assets/meshes/ASM_Body_Coxa_BR.dae" />
      </geometry>
    </visual>
    <collision>
      <origin rpy="0 0 0" xyz="0 -0.075 -0.015" />
      <geometry>
        <box size="0.060 0.150 0.120" />
        
      </geometry>
    </collision>
    <inertial>
      <origin rpy="0 0 0" xyz="-0.06535 -0.06046 -0.02699" />
      <mass value="1.27496" />
      <inertia ixx="0.00734842339" ixy="0.00442716678" ixz="0.00261637227" iyy="0.00938174596" iyz="0.00194391105" izz="0.01360743287" />
    </inertial>
  </link>
  
  <gazebo reference="BR_body_coxa_link">
    <mu1>1.6</mu1>
    <mu2>1.6</mu2>
    <kp>1000000.0</kp>
    <kd>100.0</kd>
    <material>Gazebo/Blue</material>
    <selfCollide>True</selfCollide>
    <gravity>True</gravity>
  </gazebo>
  
  <joint name="BRbody_coxa_joint" type="fixed">
    <origin rpy="0 0 0.0" xyz="0.0 -0.0 0.0" />
    <parent link="base_link" />
    <child link="BR_body_coxa_link" />
  </joint>
  
  <link name="BR_coxa_link">
    <visual>
      <origin rpy="0 0 0" xyz="0 0 0" />
      <geometry>
        <mesh filename="package://assets/meshes/ASM_Coxa.dae" />
      </geometry>
    </visual>
    <collision>
      <origin rpy="0 0 0" xyz="0.032 0 0.062" />
      <geometry>
        <box size="0.096 0.115 0.206" />
        
      </geometry>
    </collision>
    <inertial>
      <origin rpy="0 0 0" xyz="0.029740506673831706 -0.006243795258615036 0.0531650807667508 " />
      <mass value="1.529025065672639" />
      <inertia ixx="0.011945054474605522" ixy="-0.00002634" ixz="0.002634132" iyy="0.006725279871823902" iyz="-0.00006222" izz="0.0007937600668058036" />
    </inertial>
  </link>
  
  <gazebo reference="BR_coxa_link">
    <mu1>1.6</mu1>
    <mu2>1.6</mu2>
    <kp>1000000.0</kp>
    <kd>100.0</kd>
    <material>Gazebo/White</material>
    <selfCollide>True</selfCollide>
    <gravity>True</gravity>
  </gazebo>
  
  <joint name="BR_coxa_joint" type="revolute">
    <origin rpy="0.0 0.0 4.7123" xyz="0.0 -0.125 0.015" />
    <parent link="BR_body_coxa_link" />
    <child link="BR_coxa_link" />
    <axis xyz="0 0 1" />
    <limit effort="75.0" lower="-0.8" upper="0.8" velocity="7.0" />
    <dynamics damping="0.17652232372299012" friction="0.08090432308649187" />
  </joint>
  <transmission name="BR_coxa_tran">
    <type>transmission_interface/SimpleTransmission</type>
    <joint name="BR_coxa_joint">
      <hardwareInterface>hardware_interface/EffortJointInterface</hardwareInterface>
    </joint>
    <actuator name="BR_coxa_motor">
      <hardwareInterface>hardware_interface/EffortJointInterface</hardwareInterface>
      <mechanicalReduction>1</mechanicalReduction>
    </actuator>
  </transmission>
  
  <link name="BR_femur_link">
    <visual>
      <origin rpy="0 0 0" xyz="0 0 0" />
      <geometry>
        <mesh filename="package://assets/meshes/ASM_Femur.dae" />
      </geometry>
    </visual>
    <collision>
      <origin rpy="0 0 0" xyz="0.120 0.034 0.0" />
      <geometry>
        <box size="0.240 0.112 0.115" />
        
      </geometry>
    </collision>
    <inertial>
      <origin rpy="0 0 0" xyz="0.07989887448516282 0.06541932458238878 0.011191811323252539 " />
      <mass value="1.9589825189274293" />
      <inertia ixx="0.0001" ixy="0.002362186" ixz="-0.000013487" iyy="0.0176078863387994" iyz="-0.000010469" izz="0.018324950668940795" />
    </inertial>
  </link>
  
  <gazebo reference="BR_femur_link">
    <mu1>1.6</mu1>
    <mu2>1.6</mu2>
    <kp>1000000.0</kp>
    <kd>100.0</kd>
    <material>Gazebo/Orange</material>
    <selfCollide>True</selfCollide>
    <gravity>True</gravity>
  </gazebo>
  
  <joint name="BR_femur_joint" type="revolute">
    <origin rpy="-1.5708 0 0" xyz="0.06 0 0.0" />
    <parent link="BR_coxa_link" />
    <child link="BR_femur_link" />
    <axis xyz="0 0 1" />
    <limit effort="75.0" lower="-1.0" upper="0.5" velocity="7.0" />
    <dynamics damping="0.05239451488976074" friction="0.0712304113229047" />
  </joint>
  <transmission name="BR_femur_tran">
    <type>transmission_interface/SimpleTransmission</type>
    <joint name="BR_femur_joint">
      <hardwareInterface>hardware_interface/EffortJointInterface</hardwareInterface>
    </joint>
    <actuator name="BR_femur_motor">
      <hardwareInterface>hardware_interface/EffortJointInterface</hardwareInterface>
      <mechanicalReduction>1</mechanicalReduction>
    </actuator>
  </transmission>
  
  <link name="BR_tibia_link">
    <visual>
      <origin rpy="0 0 0" xyz="0 0 0" />
      <geometry>
        <mesh filename="package://assets/meshes/ASM_Tibia.dae" />
      </geometry>
    </visual>
    <collision name="BR_tibia_link_collision">
      <origin rpy="0 1.5708 0" xyz="0.164 -0.015 0" />
      <geometry>
        <cylinder length="0.244" radius="0.016" />
        
      </geometry>
    </collision>
    <inertial>
      <origin rpy="0 0 0" xyz="0.039824830659100634 -0.01008813536236085 0.019394082487128175 " />
      <mass value="0.9212659270879742" />
      <inertia ixx="0.0028204255025705196" ixy="-0.00026755" ixz="0.000201288" iyy="0.01077551245718759" iyz="0.000141149" izz="0.0053741528668645715" />
    </inertial>
  </link>
  
  <gazebo reference="BR_tibia_link">
    <mu1>1.6</mu1>
    <mu2>1.6</mu2>
    <kp>1000000.0</kp>
    <kd>100.0</kd>
    <material>Gazebo/Grey</material>
    
    
  </gazebo>
  
  <joint name="BR_tibia_joint" type="revolute">
    <origin rpy="0 0 0" xyz="0.25 0 0" />
    <parent link="BR_femur_link" />
    <child link="BR_tibia_link" />
    <axis xyz="0 0 1" />
    <limit effort="75.0" lower="0.5" upper="2.5" velocity="7.0" />
    <dynamics damping="0.5005917914946721" friction="0.07949610043071467" />
  </joint>
  <transmission name="BR_tibia_tran">
    <type>transmission_interface/SimpleTransmission</type>
    <joint name="BR_tibia_joint">
      <hardwareInterface>hardware_interface/EffortJointInterface</hardwareInterface>
    </joint>
    <actuator name="BR_tibia_motor">
      <hardwareInterface>hardware_interface/EffortJointInterface</hardwareInterface>
      <mechanicalReduction>1</mechanicalReduction>
    </actuator>
  </transmission>
  
  <link name="BR_foot_link">
    <visual>
      <geometry>
        
        <sphere radius="0.02" />
      </geometry>
      <origin rpy="0 0 0" xyz="0 0 0" />
    </visual>
    <collision name="BR_foot_link_collision">
      <geometry>
        <sphere radius="0.02" />
      </geometry>
      <origin rpy="0 0 0" xyz="0 0 0" />
    </collision>
    <inertial>
      <origin rpy="0 0 0" xyz="0 0 0" />
      <mass value="0.0258" />
      <inertia ixx="0" ixy="0" ixz="0" iyy="0" iyz="0" izz="0" />
    </inertial>
  </link>
  
  <gazebo reference="BR_foot_link">
    <mu1>1.6</mu1>
    <mu2>1.6</mu2>
    <kp>1000000.0</kp>
    <kd>100.0</kd>
    <material>Gazebo/Gold</material>
    
    
  </gazebo>
  
  <joint name="BR_foot_joint" type="fixed">
    
    
    <origin rpy="0 0 0" xyz="0.32 -0.0164 0" />
    <parent link="BR_tibia_link" />
    <child link="BR_foot_link" />
    <axis xyz="0 0 0" />
  </joint>
</robot>