<robot name="DSH1">
  
  
  
  
  
  <gazebo>
    <plugin filename="libgazebo_ros_control.so" name="gazebo_ros_control">
      <robotNamespace>DSH1</robotNamespace>
      <robotDescription>DSH1_description</robotDescription>
      <robotBaseLink>base</robotBaseLink>
      <statePublisherRate>400.0</statePublisherRate>
    </plugin>
  </gazebo>
  
  <link name="base_link">
    <inertial>
      <origin rpy="0 0 0" xyz="0 0 1.0" />
      <mass value="0" />
      <inertia ixx="0" ixy="0" ixz="0" iyy="0" iyz="0" izz="0" />
    </inertial>
    <visual>
      <origin rpy="0 0 1" xyz="0 0 0" />
      <geometry>
        
        <box size="0.3 0.2 0.12" />

        
      </geometry>
    </visual>
    <collision>
      <origin rpy="0 0 1" xyz="0 0 0.06" />
      <geometry>
        <box size="0.3 0.2 0.12" />
        
      </geometry>
    </collision>
  </link>
  <gazebo reference="base_link">
    <mu1>1.6</mu1>
    <mu2>1.6</mu2>
    <kp>1000000.0</kp>
    <kd>100.0</kd>
    <material>Gazebo/Grey</material>
    <selfCollide>True</selfCollide>
    <gravity>True</gravity>
  </gazebo>
  
  <link name="BR_body_coxa_link">
    <visual>
      <origin rpy="0 0 0" xyz="0 0 0" />
      <geometry>
        <mesh filename="package://assets/meshes/ASM_Body_Coxa_BR.dae" />
      </geometry>
    </visual>
    <collision>
      <origin rpy="0 0 0" xyz="0 -0.075 -0.015" />
      <geometry>
        <box size="0.060 0.150 0.120" />
        
      </geometry>
    </collision>
    <inertial>
      <origin rpy="0 0 0" xyz="-0.06535 -0.06046 -0.02699" />
      <mass value="1.27496" />
      <inertia ixx="0.00734842339" ixy="0.00442716678" ixz="0.00261637227" iyy="0.00938174596" iyz="0.00194391105" izz="0.01360743287" />
    </inertial>
  </link>
  
  <gazebo reference="BR_body_coxa_link">
    <mu1>1.6</mu1>
    <mu2>1.6</mu2>
    <kp>1000000.0</kp>
    <kd>100.0</kd>
    <material>Gazebo/Blue</material>
    <selfCollide>True</selfCollide>
    <gravity>True</gravity>
  </gazebo>
  
  <joint name="BRbody_coxa_joint" type="fixed">
    <origin rpy="0 0 0.0" xyz="0.0 -0.0 0.0" />
    <parent link="base_link" />
    <child link="BR_body_coxa_link" />
  </joint>
  
  <link name="BR_coxa_link">
    <visual>
      <origin rpy="0 0 0" xyz="0 0 0" />
      <geometry>
        <mesh filename="package://assets/meshes/ASM_Coxa.dae" />
      </geometry>
    </visual>
    <collision>
      <origin rpy="0 0 0" xyz="0.032 0 0.062" />
      <geometry>
        <box size="0.096 0.115 0.206" />
        
      </geometry>
    </collision>
    <inertial>
      <origin rpy="0 0 0" xyz="0.011819712654193668 0.01540679645861403 0.0638095613301142 " />
      <mass value="1.4252161752741224" />
      <inertia ixx="0.010435979605931102" ixy="-0.00002634" ixz="0.002634132" iyy="0.011407358385064613" iyz="-0.00006222" izz="0.0019914883879780655" />
    </inertial>
  </link>
  
  <gazebo reference="BR_coxa_link">
    <mu1>1.6</mu1>
    <mu2>1.6</mu2>
    <kp>1000000.0</kp>
    <kd>100.0</kd>
    <material>Gazebo/White</material>
    <selfCollide>True</selfCollide>
    <gravity>True</gravity>
  </gazebo>
  
  <joint name="BR_coxa_joint" type="revolute">
    <origin rpy="0.0 0.0 4.7123" xyz="0.0 -0.125 0.015" />
    <parent link="BR_body_coxa_link" />
    <child link="BR_coxa_link" />
    <axis xyz="0 0 1" />
    <limit effort="75.0" lower="-0.8" upper="0.8" velocity="7.0" />
    <dynamics damping="0.016037140103772808" friction="0.007965275890521156" />
  </joint>
  <transmission name="BR_coxa_tran">
    <type>transmission_interface/SimpleTransmission</type>
    <joint name="BR_coxa_joint">
      <hardwareInterface>hardware_interface/EffortJointInterface</hardwareInterface>
    </joint>
    <actuator name="BR_coxa_motor">
      <hardwareInterface>hardware_interface/EffortJointInterface</hardwareInterface>
      <mechanicalReduction>1</mechanicalReduction>
    </actuator>
  </transmission>
  
  <link name="BR_femur_link">
    <visual>
      <origin rpy="0 0 0" xyz="0 0 0" />
      <geometry>
        <mesh filename="package://assets/meshes/ASM_Femur.dae" />
      </geometry>
    </visual>
    <collision>
      <origin rpy="0 0 0" xyz="0.120 0.034 0.0" />
      <geometry>
        <box size="0.240 0.112 0.115" />
        
      </geometry>
    </collision>
    <inertial>
      <origin rpy="0 0 0" xyz="0.0739308745661543 0.013177875606890693 0.018295204623427895 " />
      <mass value="1.161019467680503" />
      <inertia ixx="0.0023206295507351626" ixy="0.002362186" ixz="-0.000013487" iyy="0.014537514993093045" iyz="-0.000010469" izz="0.01561217928699275" />
    </inertial>
  </link>
  
  <gazebo reference="BR_femur_link">
    <mu1>1.6</mu1>
    <mu2>1.6</mu2>
    <kp>1000000.0</kp>
    <kd>100.0</kd>
    <material>Gazebo/Orange</material>
    <selfCollide>True</selfCollide>
    <gravity>True</gravity>
  </gazebo>
  
  <joint name="BR_femur_joint" type="revolute">
    <origin rpy="-1.5708 0 0" xyz="0.06 0 0.0" />
    <parent link="BR_coxa_link" />
    <child link="BR_femur_link" />
    <axis xyz="0 0 1" />
    <limit effort="75.0" lower="-1.0" upper="0.5" velocity="7.0" />
    <dynamics damping="0.04323168996531835" friction="0.020453337898081222" />
  </joint>
  <transmission name="BR_femur_tran">
    <type>transmission_interface/SimpleTransmission</type>
    <joint name="BR_femur_joint">
      <hardwareInterface>hardware_interface/EffortJointInterface</hardwareInterface>
    </joint>
    <actuator name="BR_femur_motor">
      <hardwareInterface>hardware_interface/EffortJointInterface</hardwareInterface>
      <mechanicalReduction>1</mechanicalReduction>
    </actuator>
  </transmission>
  
  <link name="BR_tibia_link">
    <visual>
      <origin rpy="0 0 0" xyz="0 0 0" />
      <geometry>
        <mesh filename="package://assets/meshes/ASM_Tibia.dae" />
      </geometry>
    </visual>
    <collision name="BR_tibia_link_collision">
      <origin rpy="0 1.5708 0" xyz="0.164 -0.015 0" />
      <geometry>
        <cylinder length="0.244" radius="0.016" />
        
      </geometry>
    </collision>
    <inertial>
      <origin rpy="0 0 0" xyz="0.07566479307085829 -0.002282637676449096 0.025088513135928112 " />
      <mass value="0.34984169296256284" />
      <inertia ixx="0.0015114288277944153" ixy="-0.00026755" ixz="0.000201288" iyy="0.007555755384305649" iyz="0.000141149" izz="0.007376934296530801" />
    </inertial>
  </link>
  
  <gazebo reference="BR_tibia_link">
    <mu1>1.6</mu1>
    <mu2>1.6</mu2>
    <kp>1000000.0</kp>
    <kd>100.0</kd>
    <material>Gazebo/Grey</material>
    
    
  </gazebo>
  
  <joint name="BR_tibia_joint" type="revolute">
    <origin rpy="0 0 0" xyz="0.25 0 0" />
    <parent link="BR_femur_link" />
    <child link="BR_tibia_link" />
    <axis xyz="0 0 1" />
    <limit effort="75.0" lower="0.5" upper="2.5" velocity="7.0" />
    <dynamics damping="0.022822380343871664" friction="0.043965259720535374" />
  </joint>
  <transmission name="BR_tibia_tran">
    <type>transmission_interface/SimpleTransmission</type>
    <joint name="BR_tibia_joint">
      <hardwareInterface>hardware_interface/EffortJointInterface</hardwareInterface>
    </joint>
    <actuator name="BR_tibia_motor">
      <hardwareInterface>hardware_interface/EffortJointInterface</hardwareInterface>
      <mechanicalReduction>1</mechanicalReduction>
    </actuator>
  </transmission>
  
  <link name="BR_foot_link">
    <visual>
      <geometry>
        
        <sphere radius="0.02" />
      </geometry>
      <origin rpy="0 0 0" xyz="0 0 0" />
    </visual>
    <collision name="BR_foot_link_collision">
      <geometry>
        <sphere radius="0.02" />
      </geometry>
      <origin rpy="0 0 0" xyz="0 0 0" />
    </collision>
    <inertial>
      <origin rpy="0 0 0" xyz="0 0 0" />
      <mass value="0.0258" />
      <inertia ixx="0" ixy="0" ixz="0" iyy="0" iyz="0" izz="0" />
    </inertial>
  </link>
  
  <gazebo reference="BR_foot_link">
    <mu1>1.6</mu1>
    <mu2>1.6</mu2>
    <kp>1000000.0</kp>
    <kd>100.0</kd>
    <material>Gazebo/Gold</material>
    
    
  </gazebo>
  
  <joint name="BR_foot_joint" type="fixed">
    
    
    <origin rpy="0 0 0" xyz="0.32 -0.0164 0" />
    <parent link="BR_tibia_link" />
    <child link="BR_foot_link" />
    <axis xyz="0 0 0" />
  </joint>
</robot>