<robot name="DSH1">
  
  
  
  
  
  
  
  
  <gazebo>
    <plugin filename="libgazebo_ros_control.so" name="gazebo_ros_control">
      <robotDescription>DSH1_description</robotDescription>
      <robotBaseLink>base_link</robotBaseLink>
      <statePublisherRate>1000.0</statePublisherRate>
    </plugin>
  </gazebo>
  
  
  
  <link name="world" />
  <joint name="world_joint" type="fixed">
    <parent link="world" />
    <child link="base_link" />
  </joint>
  
  <link name="base_link">
    <visual>
      <origin rpy="0 0 0" xyz="0 0 0" />
      <geometry>
        <mesh filename="package://assets/meshes/ASM_test_leg_stand.dae" />
      </geometry>
    </visual>
    <collision>
      <origin rpy="0 0 0" xyz="0 0 0.025" />
      <geometry>
        <box size="1.05 0.35 0.05" />
      </geometry>
    </collision>
    <inertial>
      <origin rpy="0 0 0" xyz="0 0 0" />
      <mass value="5.0" />
      <inertia ixx="1.0" ixy="0.0" ixz="0.0" iyy="1.0" iyz="0.0" izz="1.0" />
    </inertial>
  </link>
  <gazebo reference="base_link">
    <mu1>1.6</mu1>
    <mu2>1.6</mu2>
    <kp>1000000.0</kp>
    <kd>100.0</kd>
    <material>Gazebo/Grey</material>
    <selfCollide>True</selfCollide>
    <gravity>True</gravity>
  </gazebo>
  
  <joint name="vertical_slide_joint" type="prismatic">
    <origin rpy="0 0 1.5708" xyz="-0.26 0.0 0.16" />
    <parent link="base_link" />
    <child link="vertical_slide_link" />
    <axis xyz="0 0 1" />
    <limit effort="100" lower="0.5" upper="0.5" velocity="100" />
    <dynamics damping="10" friction="1" />
  </joint>
  <transmission name="vertical_slide_tran">
    <type>transmission_interface/SimpleTransmission</type>
    <joint name="vertical_slide_joint">
      <hardwareInterface>hardware_interface/EffortJointInterface</hardwareInterface>
    </joint>
    <actuator name="vertical_slide_motor">
      <hardwareInterface>hardware_interface/EffortJointInterface</hardwareInterface>
      <mechanicalReduction>1</mechanicalReduction>
    </actuator>
  </transmission>
  
  <link name="vertical_slide_link">
    <visual>
      <origin rpy="0 0 0" xyz="0 0 0" />
      <geometry>
        <mesh filename="package://assets/meshes/ASM_Vertical_Slide.dae" />
        
      </geometry>
    </visual>
    <collision>
      <origin rpy="0 0 0" xyz="0.0 0.0 0.8" />
      <geometry>
        <box size="0.3 0.16 0.16" />
      </geometry>
    </collision>
    <inertial>
      <origin rpy="0 0 0" xyz="0 0 0" />
      <mass value="5.0" />
      <inertia ixx="1.0" ixy="0.0" ixz="0.0" iyy="1.0" iyz="0.0" izz="1.0" />
    </inertial>
  </link>
  
  <gazebo reference="vertical_slide_link">
    <mu1>1.6</mu1>
    <mu2>1.6</mu2>
    <kp>1000000.0</kp>
    <kd>100.0</kd>
    <material>Gazebo/Grey</material>
    <selfCollide>True</selfCollide>
    <gravity>True</gravity>
  </gazebo>
  
  <link name="BR_body_coxa_link">
    <visual>
      <origin rpy="0 0 0" xyz="0 0 0" />
      <geometry>
        
        <mesh filename="package://assets/meshes/ASM_Body_Coxa_BR.dae" />
      </geometry>
      <material name="blue">
        <color rgba="0 0 .8 1" />
      </material>
    </visual>
    <collision>
      <origin rpy="0 0 0" xyz="0 -0.075 -0.015" />
      <geometry>
        <box size="0.060 0.150 0.120" />
        
      </geometry>
    </collision>
    <inertial>
      <origin rpy="0 0 0" xyz="-0.05784 -0.09097 -0.02347" />
      <mass value="1.49648" />
      <inertia ixx="0.00236949742" ixy="-0.00038113993" ixz="0.00030648174" iyy="0.00404931192" iyz="-0.00013940059" izz="0.00434304717" />
    </inertial>
  </link>
  
  <gazebo reference="BR_body_coxa_link">
    <mu1>1.6</mu1>
    <mu2>1.6</mu2>
    <kp>1000000.0</kp>
    <kd>100.0</kd>
    <material>Gazebo/Blue</material>
    <selfCollide>True</selfCollide>
    <gravity>True</gravity>
  </gazebo>
  
  <joint name="BRbody_coxa_joint" type="fixed">
    <origin rpy="0 0 0.0" xyz="0.0 -0.0 0.0" />
    <parent link="vertical_slide_link" />
    <child link="BR_body_coxa_link" />
  </joint>
  
  <link name="BR_coxa_link">
    <visual>
      <origin rpy="0 0 0" xyz="0 0 0" />
      <geometry>
        <mesh filename="package://assets/meshes/ASM_Coxa.dae" />
      </geometry>
      <material name="white">
        <color rgba="1 1 1 1" />
      </material>
    </visual>
    <collision>
      <origin rpy="0 0 0" xyz="0.032 0 0.062" />
      <geometry>
        <box size="0.096 0.115 0.206" />
        
      </geometry>
    </collision>
    <inertial>
      <origin rpy="0 0 0" xyz="0.03684144879524613 -0.04953155650902076 -0.013424138669356822 " />
      <mass value="2.3864313791336285" />
      <inertia ixx="0.01288731354" ixy="-4.028532e-05" ixz="0.00060423369" iyy="0.0125301198" iyz="-4.000394e-05" izz="0.00456150593" />
    </inertial>
  </link>
  
  <gazebo reference="BR_coxa_link">
    <mu1>1.6</mu1>
    <mu2>1.6</mu2>
    <kp>1000000.0</kp>
    <kd>100.0</kd>
    <material>Gazebo/White</material>
    <selfCollide>True</selfCollide>
    <gravity>True</gravity>
  </gazebo>
  
  <joint name="BR_coxa_joint" type="revolute">
    <origin rpy="0.0 0.0 4.7123" xyz="0.008586988819112129 -0.12445416078424829 0.13810877847848466 " />
    <parent link="BR_body_coxa_link" />
    <child link="BR_coxa_link" />
    <axis xyz="0 0 1" />
    
    <limit effort="75.0" lower="-0.9" upper="0.9" velocity="11.0" />
    <dynamics damping="0.08002875142156474" friction="0.07419302203232607" />
  </joint>
  <transmission name="BR_coxa_tran">
    <type>transmission_interface/SimpleTransmission</type>
    <joint name="BR_coxa_joint">
      <hardwareInterface>hardware_interface/EffortJointInterface</hardwareInterface>
    </joint>
    <actuator name="BR_coxa_motor">
      <hardwareInterface>hardware_interface/EffortJointInterface</hardwareInterface>
      <mechanicalReduction>1</mechanicalReduction>
    </actuator>
  </transmission>
  
  <link name="BR_femur_link">
    <visual>
      <origin rpy="0 0 0" xyz="0 0 0" />
      <geometry>
        <mesh filename="package://assets/meshes/ASM_Femur.dae" />
      </geometry>
      <material name="orange">
        <color rgba="1 0.6 0 1" />
      </material>
    </visual>
    <collision>
      <origin rpy="0 0 0" xyz="0.120 0.034 0.0" />
      <geometry>
        <box size="0.240 0.112 0.115" />
        
      </geometry>
    </collision>
    <inertial>
      <origin rpy="0 0 0" xyz="0.05605383139618479 -0.011702037898951339 0.02729891165283024 " />
      <mass value="1.6517337939432115" />
      <inertia ixx="0.00220546264" ixy="-0.00018851889" ixz="6.874375e-05" iyy="0.00860408815" iyz="-2.201149e-05" izz="0.00924003917" />
    </inertial>
  </link>
  
  <gazebo reference="BR_femur_link">
    <mu1>1.6</mu1>
    <mu2>1.6</mu2>
    <kp>1000000.0</kp>
    <kd>100.0</kd>
    <material>Gazebo/Orange</material>
    <selfCollide>True</selfCollide>
    <gravity>True</gravity>
  </gazebo>
  
  <joint name="BR_femur_joint" type="revolute">
    <origin rpy="-1.5708 0 0" xyz="0.1773138750147193 0.05482708359529845 0.004095530656090501 " />
    <parent link="BR_coxa_link" />
    <child link="BR_femur_link" />
    <axis xyz="0 0 1" />
    <limit effort="75.0" lower="-1.1" upper="0.6" velocity="8.0" />
    <dynamics damping="0.09144773916813087" friction="0.06737343947090739" />
  </joint>
  <transmission name="BR_femur_tran">
    <type>transmission_interface/SimpleTransmission</type>
    <joint name="BR_femur_joint">
      <hardwareInterface>hardware_interface/EffortJointInterface</hardwareInterface>
    </joint>
    <actuator name="BR_femur_motor">
      <hardwareInterface>hardware_interface/EffortJointInterface</hardwareInterface>
      <mechanicalReduction>1</mechanicalReduction>
    </actuator>
  </transmission>
  
  <link name="BR_tibia_link">
    <visual>
      <origin rpy="0 0 0" xyz="0 0 0" />
      <geometry>
        <mesh filename="package://assets/meshes/ASM_Tibia.dae" />
      </geometry>
      <material name="grey">
        <color rgba="0.5 0.5 0.5 1" />
      </material>
    </visual>
    <collision name="BR_tibia_link_collision">
      <origin rpy="0 1.5708 0" xyz="0.164 -0.015 0" />
      <geometry>
        <cylinder length="0.244" radius="0.016" />
        
      </geometry>
    </collision>
    <inertial>
      <origin rpy="0 0 0" xyz="-0.017346686531403574 0.059613458940808925 0.08135164177450636 " />
      <mass value="0.3208782470499173" />
      <inertia ixx="0.00040546855" ixy="-0.00020546604" ixz="-4.283075e-05" iyy="0.00584163406" iyz="4.84805e-06" izz="0.00560713232" />
    </inertial>
  </link>
  
  <gazebo reference="BR_tibia_link">
    <mu1>1.6</mu1>
    <mu2>1.6</mu2>
    <kp>1000000.0</kp>
    <kd>100.0</kd>
    <material>Gazebo/Grey</material>
    
    
  </gazebo>
  
  <joint name="BR_tibia_joint" type="revolute">
    <origin rpy="0 0 0" xyz="0.35948877289098946 0.02685795453544726 -0.044764366875242684 " />
    <parent link="BR_femur_link" />
    <child link="BR_tibia_link" />
    <axis xyz="0 0 1" />
    <limit effort="75.0" lower="0.4" upper="2.4" velocity="11.0" />
    <dynamics damping="0.004055138911298673" friction="0.05070384896681373" />
  </joint>
  <transmission name="BR_tibia_tran">
    <type>transmission_interface/SimpleTransmission</type>
    <joint name="BR_tibia_joint">
      <hardwareInterface>hardware_interface/EffortJointInterface</hardwareInterface>
    </joint>
    <actuator name="BR_tibia_motor">
      <hardwareInterface>hardware_interface/EffortJointInterface</hardwareInterface>
      <mechanicalReduction>1</mechanicalReduction>
    </actuator>
  </transmission>
  
  <link name="BR_foot_link">
    <visual>
      <geometry>
        
        <sphere radius="0.02" />
      </geometry>
      <origin rpy="0 0 0" xyz="0 0 0" />
      <material name="grey">
        <color rgba="0.5 0.5 0.5 1" />
      </material>
    </visual>
    <collision name="BR_foot_link_collision">
      <geometry>
        <sphere radius="0.02" />
      </geometry>
      <origin rpy="0 0 0" xyz="0 0 0" />
    </collision>
    <inertial>
      <origin rpy="0 0 0" xyz="0 0 0" />
      <mass value="0.0258" />
      <inertia ixx="0" ixy="0" ixz="0" iyy="0" iyz="0" izz="0" />
    </inertial>
  </link>
  
  <gazebo reference="BR_foot_link">
    <mu1>1.6</mu1>
    <mu2>1.6</mu2>
    <kp>1000000.0</kp>
    <kd>100.0</kd>
    <material>Gazebo/Grey</material>
    
    
  </gazebo>
  
  <joint name="BR_foot_joint" type="fixed">
    
    
    <origin rpy="0 0 0" xyz="0.343 -0.015 0" />
    <parent link="BR_tibia_link" />
    <child link="BR_foot_link" />
    <axis xyz="0 0 0" />
  </joint>
</robot>